How My Machine Learning Predicted My Whole Bracket - Craig Sullivan's Github Site
…
And now we fit our model. This can make the fan on your laptop go “weeeeeeeeeee”.

log_fit <- 
  log_workflow %>% 
  fit(data = log_train)

Here the training data

trainpredict <- log_fit %>% predict(new_data = log_train) %>%
  bind_cols(log_train)

trainpredict

## # A tibble: 34,191 x 16
##    .pred_class Season Team  Date       Opponent Outcome Rolling_Mean_As~
##    <fct>       <chr>  <chr> <date>     <chr>    <fct>              <dbl>
##  1 L           2014-~ Abil~ 2014-11-19 Tulsa    L                   24  
##  2 L           2014-~ Abil~ 2014-11-22 Duquesne L                   24  
##  3 L           2014-~ Abil~ 2014-11-29 UC-Rive~ L                   13.6
##  4 L           2014-~ Abil~ 2014-12-04 Sacrame~ W                   12.6
##  5 L           2014-~ Abil~ 2014-12-06 Houston  L                   13  
##  6 L           2014-~ Abil~ 2014-12-17 Loyola ~ L                   11.9
##  7 W           2014-~ Abil~ 2014-12-23 Arkansa~ W                   11.9
##  8 L           2014-~ Abil~ 2014-12-28 Grand C~ L                   12.9
##  9 W           2014-~ Abil~ 2015-01-04 Central~ W                   13.5
## 10 W           2014-~ Abil~ 2015-01-10 Nicholl~ W                   13.2
## # ... with 34,181 more rows, and 9 more variables:
## #   Rolling_Mean_Turnovers <dbl>, TeamSRS <dbl>, TeamSOS <dbl>,
## #   Rolling_Mean_Effective_FG_Percent <dbl>,
## #   Opponent_Rolling_Mean_Assists <dbl>, Opponent_Rolling_Mean_Turnovers <dbl>,
## #   OpponentSRS <dbl>, OpponentSOS <dbl>,
## #   Opponent_Rolling_Mean_Effective_FG_Percent <dbl>

trainpredict <- log_fit %>% predict(new_data = log_train, type="prob") %>%
  bind_cols(trainpredict)

trainpredict

## # A tibble: 34,191 x 18
##    .pred_L .pred_W .pred_class Season Team  Date       Opponent Outcome
##      <dbl>   <dbl> <fct>       <chr>  <chr> <date>     <chr>    <fct>  
##  1   0.920  0.0803 L           2014-~ Abil~ 2014-11-19 Tulsa    L      
##  2   0.842  0.158  L           2014-~ Abil~ 2014-11-22 Duquesne L      
##  3   0.879  0.121  L           2014-~ Abil~ 2014-11-29 UC-Rive~ L      
##  4   0.559  0.441  L           2014-~ Abil~ 2014-12-04 Sacrame~ W      
##  5   0.949  0.0510 L           2014-~ Abil~ 2014-12-06 Houston  L      
##  6   0.983  0.0169 L           2014-~ Abil~ 2014-12-17 Loyola ~ L      
##  7   0.261  0.739  W           2014-~ Abil~ 2014-12-23 Arkansa~ W      
##  8   0.810  0.190  L           2014-~ Abil~ 2014-12-28 Grand C~ L      
##  9   0.161  0.839  W           2014-~ Abil~ 2015-01-04 Central~ W      
## 10   0.216  0.784  W           2014-~ Abil~ 2015-01-10 Nicholl~ W      
## # ... with 34,181 more rows, and 10 more variables: Rolling_Mean_Assists <dbl>,
## #   Rolling_Mean_Turnovers <dbl>, TeamSRS <dbl>, TeamSOS <dbl>,
## #   Rolling_Mean_Effective_FG_Percent <dbl>,
## #   Opponent_Rolling_Mean_Assists <dbl>, Opponent_Rolling_Mean_Turnovers <dbl>,
## #   OpponentSRS <dbl>, OpponentSOS <dbl>,
## #   Opponent_Rolling_Mean_Effective_FG_Percent <dbl>
…
roc_auc(trainpredict, truth = Outcome, .pred_L)

## # A tibble: 1 x 3
##   .metric .estimator .estimate
##   <chr>   <chr>          <dbl>
## 1 roc_auc binary         0.999

testpredict <- log_fit %>% predict(new_data = log_test) %>%
  bind_cols(log_test)

testpredict

## # A tibble: 8,547 x 16
##    .pred_class Season Team  Date       Opponent Outcome Rolling_Mean_As~
##    <fct>       <chr>  <chr> <date>     <chr>    <fct>              <dbl>
##  1 W           2014-~ Abil~ 2014-12-22 South C~ W                   11.4
##  2 L           2014-~ Abil~ 2015-03-05 Incarna~ L                   11  
##  3 L           2014-~ Air ~ 2015-02-04 New Mex~ W                   15.4
##  4 L           2014-~ Air ~ 2015-02-21 Colorad~ L                   15.9
##  5 W           2014-~ Akron 2014-12-04 Western~ W                   12.6
##  6 W           2014-~ Akron 2015-01-06 Western~ W                   12.5
##  7 L           2014-~ Akron 2015-01-17 Central~ W                   12  
##  8 W           2014-~ Akron 2015-03-09 Norther~ W                   13  
##  9 L           2014-~ Alab~ 2014-11-25 Jackson~ L                   11.4
## 10 L           2014-~ Alab~ 2014-12-19 Marquet~ L                   12.2
## # ... with 8,537 more rows, and 9 more variables: Rolling_Mean_Turnovers <dbl>,
## #   TeamSRS <dbl>, TeamSOS <dbl>, Rolling_Mean_Effective_FG_Percent <dbl>,
## #   Opponent_Rolling_Mean_Assists <dbl>, Opponent_Rolling_Mean_Turnovers <dbl>,
## #   OpponentSRS <dbl>, OpponentSOS <dbl>,
## #   Opponent_Rolling_Mean_Effective_FG_Percent <dbl>

testpredict <- log_fit %>% predict(new_data = log_test, type="prob") %>%
  bind_cols(testpredict)

testpredict

## # A tibble: 8,547 x 18
##    .pred_L .pred_W .pred_class Season Team  Date       Opponent Outcome
##      <dbl>   <dbl> <fct>       <chr>  <chr> <date>     <chr>    <fct>  
##  1  0.445   0.555  W           2014-~ Abil~ 2014-12-22 South C~ W      
##  2  0.823   0.177  L           2014-~ Abil~ 2015-03-05 Incarna~ L      
##  3  0.593   0.407  L           2014-~ Air ~ 2015-02-04 New Mex~ W      
##  4  0.775   0.225  L           2014-~ Air ~ 2015-02-21 Colorad~ L      
##  5  0.0489  0.951  W           2014-~ Akron 2014-12-04 Western~ W      
##  6  0.427   0.573  W           2014-~ Akron 2015-01-06 Western~ W      
##  7  0.717   0.283  L           2014-~ Akron 2015-01-17 Central~ W      
##  8  0.415   0.585  W           2014-~ Akron 2015-03-09 Norther~ W      
##  9  0.727   0.273  L           2014-~ Alab~ 2014-11-25 Jackson~ L      
## 10  0.990   0.0101 L           2014-~ Alab~ 2014-12-19 Marquet~ L      
## # ... with 8,537 more rows, and 10 more variables: Rolling_Mean_Assists <dbl>,
## #   Rolling_Mean_Turnovers <dbl>, TeamSRS <dbl>, TeamSOS <dbl>,
## #   Rolling_Mean_Effective_FG_Percent <dbl>,
## #   Opponent_Rolling_Mean_Assists <dbl>, Opponent_Rolling_Mean_Turnovers <dbl>,
## #   OpponentSRS <dbl>, OpponentSOS <dbl>,
## #   Opponent_Rolling_Mean_Effective_FG_Percent <dbl>
…
